…
#4. 5 minutes time series plot of the average number of steps taken
# Takinf the means of each 5 minutes interval, exluding missing data

```r
j<-my_data%>%
        select(steps, interval)%>%
        filter(!is.na(steps))%>%
        group_by(interval)%>%
        summarise(AvgSteps=mean(steps))
j
```

```
## # A tibble: 288 x 2
##    interval  AvgSteps
##       <int>     <dbl>
##  1        0 1.7169811
##  2        5 0.3396226
##  3       10 0.1320755
##  4       15 0.1509434
##  5       20 0.0754717
##  6       25 2.0943396
##  7       30 0.5283019
##  8       35 0.8679245
##  9       40 0.0000000
## 10       45 1.4716981
## # ... with 278 more rows
```
…
it's time to see new averages of steps done per day

```r
z<-StepsImputed%>%
        select(steps, date)%>%
        group_by(date)%>%
        summarise(SumSteps=sum(steps))
z 
```

```
## # A tibble: 61 x 2
##          date SumSteps
##        <fctr>    <dbl>
##  1 2012-10-01 10766.19
##  2 2012-10-02   126.00
##  3 2012-10-03 11352.00
##  4 2012-10-04 12116.00
##  5 2012-10-05 13294.00
##  6 2012-10-06 15420.00
##  7 2012-10-07 11015.00
##  8 2012-10-08 10766.19
##  9 2012-10-09 12811.00
## 10 2012-10-10  9900.00
## # ... with 51 more rows
```
…
Number of steps taken by the day of the week

```r
a<-StepsImputed%>%
        select(steps, interval, Weekdays)%>%
        group_by(Weekdays, interval )%>%
        summarise(AvgSteps=mean(steps))
a
```

```
## # A tibble: 576 x 3
## # Groups:   Weekdays [?]
##    Weekdays interval   AvgSteps
##       <chr>    <int>      <dbl>
##  1  weekday        0 2.25115304
##  2  weekday        5 0.44528302
##  3  weekday       10 0.17316562
##  4  weekday       15 0.19790356
##  5  weekday       20 0.09895178
##  6  weekday       25 1.59035639
##  7  weekday       30 0.69266247
##  8  weekday       35 1.13794549
##  9  weekday       40 0.00000000
## 10  weekday       45 1.79622642
## # ... with 566 more rows
```
…
